<svg id="innovate" data-name="Layer 1" xmlns="http://www.w3.org/2000/svg" viewBox="0 0 86.4 86.4">
    <title>Innovate</title>
    <path class="cls-1"
        d="M48,72.14H42.19a3.11,3.11,0,0,1-3.06-2.54l-1.19-6.13a21.58,21.58,0,0,1-6.86-4l-5.92,2a3.14,3.14,0,0,1-3.72-1.39l-2.88-5a3.11,3.11,0,0,1,.65-3.91l4.73-4.11a21.38,21.38,0,0,1,0-7.92L19.21,35.1a3.1,3.1,0,0,1-.65-3.91l2.88-5a3.14,3.14,0,0,1,3.72-1.39l5.92,2a21.58,21.58,0,0,1,6.86-4l1.2-6.15a3.09,3.09,0,0,1,3-2.52H48a3.1,3.1,0,0,1,3,2.54l1.2,6.13a21.42,21.42,0,0,1,6.86,4l5.93-2a3.14,3.14,0,0,1,3.72,1.38l2.88,5a3.09,3.09,0,0,1-.67,3.91l-4.72,4.11a21.38,21.38,0,0,1,0,7.92L71,51.34a3,3,0,0,1,.62,3.72l-2.94,5.1A3.14,3.14,0,0,1,65,61.55l-5.93-2a21.27,21.27,0,0,1-6.86,4L51,69.62A3.1,3.1,0,0,1,48,72.14Zm-16.17-16,.66.62a18.41,18.41,0,0,0,7.23,4.17l.86.27L42.08,69a.12.12,0,0,0,.11.1H48a.1.1,0,0,0,.1-.08l1.55-7.92.87-.26a18.41,18.41,0,0,0,7.22-4.17l.66-.62L66,58.71a.11.11,0,0,0,.14-.06l2.95-5.1-6.18-5.32.21-.88a18.35,18.35,0,0,0,0-8.34l-.21-.88L69,32.84a.11.11,0,0,0,0-.14l-2.88-5a.11.11,0,0,0-.14-.05l-7.62,2.62-.66-.62a18.34,18.34,0,0,0-7.22-4.17l-.87-.27-1.54-7.89a.12.12,0,0,0-.11-.1H42.19a.1.1,0,0,0-.1.08l-1.55,7.91-.86.26a18.56,18.56,0,0,0-7.23,4.18l-.66.62-7.61-2.62a.11.11,0,0,0-.14.05l-2.88,5a.1.1,0,0,0,0,.13l6.09,5.3-.21.88a18.35,18.35,0,0,0,0,8.34l.21.88-6.08,5.29a.09.09,0,0,0,0,.13l2.88,5a.11.11,0,0,0,.14.05Zm13.29-.53A12.38,12.38,0,1,1,57.45,43.18,12.39,12.39,0,0,1,45.08,55.56Zm0-21.75a9.38,9.38,0,1,0,9.37,9.37A9.38,9.38,0,0,0,45.08,33.81Z" />
</svg>