<svg id="accelerate" data-name="Layer 1" xmlns="http://www.w3.org/2000/svg" viewBox="0 0 86.4 86.4">
    <title>Accelerate</title>
    <path class="cls-1"
        d="M55.57,55.56H30.82v-1.5c0-13.08,1.29-29.37,11.32-39.4L43.2,13.6l1.06,1.06c10,10,11.31,26.32,11.31,39.4Zm-21.74-3H52.56c-.09-11.72-1.42-25.69-9.36-34.65C35.26,26.87,33.92,40.84,33.83,52.56Z" />
    <path class="cls-1"
        d="M43.19,72.7l-1-1c-.31-.29-7.57-7.22-7.57-17.67h3c0,6.91,3.73,12.17,5.59,14.37,1.86-2.2,5.6-7.49,5.6-14.37h3c0,10.45-7.26,17.38-7.57,17.67Z" />
    <rect class="cls-1" x="32.52" y="44.53" width="21.55" height="3" />
    <polygon class="cls-1"
        points="52.57 62.96 52.57 54.06 55.57 54.06 55.57 58.15 59.21 56.37 59.21 44.58 52.14 39.12 53.97 36.74 62.21 43.1 62.21 58.25 52.57 62.96" />
    <polygon class="cls-1"
        points="33.83 62.96 24.19 58.25 24.19 43.1 32.43 36.74 34.26 39.12 27.19 44.58 27.19 56.37 30.83 58.15 30.83 54.06 33.83 54.06 33.83 62.96" />
</svg>