<svg id="automotive" data-name="Layer 1" xmlns="http://www.w3.org/2000/svg" viewBox="0 0 86.4 86.4">
    <title>Automotive</title>
    <path class="cls-1"
        d="M43.2,71A27.82,27.82,0,1,1,71,43.2,27.85,27.85,0,0,1,43.2,71Zm0-51.64A23.82,23.82,0,1,0,67,43.2,23.84,23.84,0,0,0,43.2,19.38Z" />
    <path class="cls-1"
        d="M43.2,50.83a8.42,8.42,0,1,1,8.41-8.41A8.42,8.42,0,0,1,43.2,50.83Zm0-14.22A5.81,5.81,0,1,0,49,42.42,5.81,5.81,0,0,0,43.2,36.61Z" />
    <rect class="cls-1" x="16.99" y="40.55" width="20.32" height="2.61"
        transform="translate(-10.4 9.01) rotate(-15.86)" />
    <path class="cls-1"
        d="M19.89,51.29l-2.58-.36c.05-.4.68-4,8-6.23,7.12-2.18,11.89-.24,12.09-.15l-1,2.4s-4.15-1.64-10.32.25C20.46,48.93,19.89,51.27,19.89,51.29Z" />
    <path class="cls-1"
        d="M40.33,69.13l-2.46-.87c2.3-6.5,2.8-17,.89-18.73l1.76-1.93C44,50.76,42.38,63.34,40.33,69.13Z" />
    <path class="cls-1" d="M46.07,69.13c-2-5.79-3.67-18.37-.19-21.53l1.76,1.93c-1.91,1.73-1.41,12.23.89,18.73Z" />
    <polygon class="cls-1" points="43.2 49.52 40.69 50.53 39.48 67.51 40.98 68.7 43.2 68.7 43.2 49.52" />
    <polygon class="cls-1" points="43.2 49.52 45.71 50.53 46.91 67.51 45.42 68.7 43.2 68.7 43.2 49.52" />
    <path class="cls-1"
        d="M19,44.16l-1.49,2,.33,2.12,2,.77s7.48-6.32,15.57-3.72a2.82,2.82,0,0,1,.87-1.17V40.23l-2.25-.33Z" />
    <rect class="cls-1" x="57.95" y="31.7" width="2.61" height="20.32"
        transform="translate(2.8 87.42) rotate(-74.15)" />
    <path class="cls-1"
        d="M66.51,51.29s-.57-2.36-6.21-4.09C54.07,45.29,50,46.94,50,47l-1-2.4c.2-.08,5-2,12.09.15,7.35,2.26,8,5.83,8,6.23l-1.29.15Z" />
    <path class="cls-1"
        d="M67.36,44.16l1.49,2-.33,2.12-2,.77S59.05,42.73,51,45.33a2.82,2.82,0,0,0-.87-1.17V40.23l2.25-.33Z" />
</svg>