<svg id="information" data-name="Layer 1" xmlns="http://www.w3.org/2000/svg" viewBox="0 0 86.4 86.4">
    <title>Information</title>
    <path class="cls-1"
        d="M23.44,49.36A5.32,5.32,0,0,1,18.13,44V23.57a5.31,5.31,0,0,1,5.31-5.31H43.91a5.31,5.31,0,0,1,5.31,5.31h-2.6a2.71,2.71,0,0,0-2.71-2.7H23.44a2.7,2.7,0,0,0-2.7,2.7V44a2.71,2.71,0,0,0,2.7,2.71Z" />
    <path class="cls-1"
        d="M63,68.14H42.49a5.31,5.31,0,0,1-5.31-5.31V42.36a5.31,5.31,0,0,1,5.31-5.31H63a5.31,5.31,0,0,1,5.31,5.31V62.83A5.31,5.31,0,0,1,63,68.14ZM42.49,39.65a2.72,2.72,0,0,0-2.71,2.71V62.83a2.71,2.71,0,0,0,2.71,2.7H63a2.7,2.7,0,0,0,2.7-2.7V42.36A2.71,2.71,0,0,0,63,39.65Z" />
    <path class="cls-1"
        d="M33.13,58.78a5.31,5.31,0,0,1-5.31-5.31V33a5.32,5.32,0,0,1,5.31-5.32H53.6A5.32,5.32,0,0,1,58.91,33H56.3a2.7,2.7,0,0,0-2.7-2.71H33.13A2.71,2.71,0,0,0,30.42,33V53.47a2.71,2.71,0,0,0,2.71,2.7Z" />
</svg>