<svg id="application" data-name="Layer 1" xmlns="http://www.w3.org/2000/svg" viewBox="0 0 86.4 86.4">
    <title>Application</title>
    <path class="cls-1"
        d="M65.09,68.35H25.36A5.31,5.31,0,0,1,20.05,63V23.32A5.31,5.31,0,0,1,25.36,18H65.09a5.31,5.31,0,0,1,5.31,5.31V63A5.31,5.31,0,0,1,65.09,68.35ZM25.36,20.61a2.71,2.71,0,0,0-2.7,2.71V63a2.71,2.71,0,0,0,2.7,2.71H65.09A2.71,2.71,0,0,0,67.79,63V23.32a2.71,2.71,0,0,0-2.7-2.71Z" />
    <polygon class="cls-1"
        points="36.41 50.49 29.1 43.18 36.41 35.87 38.25 37.72 32.79 43.18 38.25 48.64 36.41 50.49" />
    <polygon class="cls-1" points="54.05 50.49 52.2 48.64 57.67 43.18 52.2 37.72 54.05 35.87 61.35 43.18 54.05 50.49" />
    <rect class="cls-1" x="29.25" y="41.88" width="31.95" height="2.61"
        transform="translate(-10.49 71.56) rotate(-70.67)" />
</svg>